learndash-2checkout|1.1.1.1|2021-06-08 00:00:00
learndash-bbpress|2.1.1|2019-11-05 00:00:00
learndash-certificate-builder|1.0.2|2021-05-25 00:00:00
learndash-course-grid|1.7.0|2021-02-08 00:00:00
learndash-edd|1.2.0|2019-10-18 00:00:00
learndash-elementor|1.0.3|2021-01-06 00:00:00
learndash-event-espresso|1.1.0|2019-04-24 00:00:00
learndash-gravity-forms|2.1.1|2019-09-26 00:00:00
learndash-memberpress|2.2.0|2020-11-09 00:00:00
ld-multilingual|1.0|2020-04-14 00:00:00
learndash-notifications|1.5.2|2021-03-08 00:00:00
learndash-paidmemberships|1.3.1|2021-04-01 00:00:00
learndash-restrict-content-pro|1.1.0|2019-07-11 00:00:00
learndash-samcart|1.0|2018-01-17 00:00:00
learndash-stripe|1.8.0.1|2021-06-08 00:00:00
learndash-thrivecart|1.0.0|2020-11-11 00:00:00
learndash-woocommerce|1.9.2|2021-05-27 00:00:00
learndash-zapier|2.2.0|2020-11-02 00:00:00
learndash-propanel-readme|2.1.4.1|2021-05-12 00:00:00
learndash-core-readme|3.4.1.1|2021-05-28 00:00:00
